{
  "database": {
    "rules": "database.rules.json"
  },
  "hosting": {
    "public": "dist/ColocUPxFirebase",
    "ignore": [
      "firebase.json",
      "**/.*",
      "**/node_modules/**"
    ]
  }
}
